{
    "joi.dramatic": {
        "sounds": [
            {
                "name": "joi/dramatic",
                "stream": true
            }
        ]
    },
    "joi.villagers": {
        "sounds": [
            {
                "name": "joi/villagers",
                "stream": true
            }
        ]
    },
    "joi.boyanddog": {
        "sounds": [
            {
                "name": "joi/boyanddog",
                "stream": true
            }
        ]
    },
    "joi.sweet": {
        "sounds": [
            {
                "name": "joi/sweet",
                "stream": true
            }
        ]
    },
    "joi.sineit": {
        "sounds": [
            {
                "name": "joi/sineit",
                "stream": true
            }
        ]
    },
    "joi.odd": {
        "sounds": [
            {
                "name": "joi/odd",
                "stream": true
            }
        ]
    },
    "joi.downwards": {
        "sounds": [
            {
                "name": "joi/downwards",
                "stream": true
            }
        ]
    }
}